PROGRESSION avec KLAVARO

1/ Sur le test «3-Vitesse» en français :
Condition : Clavier ISO + Disposition Kéa
Objectif : Dépasser ma vitesse en Azerty, ~33 mots/min

Date				Vitesse	Précision
22:09-09/08/2018	19.49	96.10%
22:15-09/08/2018	21.17	95.74%
22:22-09/08/2017	19.39	94.40%
23:18-10/08/2018	21.21	96.41%
23:29-10/08/2018	21.16	96.06%
23:34-10/80/2018	21.84	94.78%
23:39-10/08/2018	20.54	91.31%
23:44-10/08/2018	20.88	93.52%
13:15-11/08/2018	23.41	95.41%
13:26-11/08/2018	22.12	92.59%
10:14-12/08/2018	22.98	95.75%
10:23-12/08/2018	22.54	96.07%
10:33-12/08/2018	23.49	95.64%
10:46-12/08/2018	23.11	94.12%
11:50-12/08/2018	25.76	96.21%
10:43-16/08/2018	20.56	96.58%
10:47-16/08/2018	23.72	97.27%
10:54-16/08/2018	24.65	95.65%
13:31-16/08/2018	24.96	97.73%
13:42-16/08/2018	25.54	96.25%
17:28-17/08/2018	25.52	95.84%
17:34-17/08/2018	25.97	97.94%
18:02-17/08/2018	25.02	93.89%
18:07-17/08/2018	27.20	96.14%
23:52-17/08/2018	25.03	95.56%
23:57-17/08/2018	25.73	95.11%
00:05-18/08/2018	26.66	95.34%
13:53-21/08/2018	22.33	94.47%
14:44-21/08/2018	25.57	95.74%
14:49-21/08/2018	25.16	95.50%
14:54-21/08/2018	24.55	94.58%
19:04-22/08/2018	24.12	96.39%
19:10-22/08/2018	25.13	95.99%
19:17-22/08/2018	23.33	94.13%
19:28-22/08/2018	25.97	94.68%
19:36-22/08/2018	24.21	94.91%
00:25-23/08/2018	27.31	97.66%
00:29-23/08/2018	26.50	94.30%
00:53-23/08/2018	26.60	96.31%
00:59-23/08/2018	27.25	95.59%
13:21-24/08/2018	25.21	97.17%
13:26-24/08/2018	26.50	96.76%
13.33-24/08/2018	21.87	93.54%
13:39-24/08/2018	28.26	96.71%
13:45-24/08/2018	27.65	96.27%
18:30-24/08/2018	29.01	97.02%
00:17-25/08/2018	28.17	95.02%
13:22-25/08/2018	27.02	96.05%
13:28-25/08/2018	28.09	96.64%
13:33-25/08/2018	29.19	96.80%
15:20-26/08/2018	30.33	96.32%	>30
15:28-26/08/2018	27.52	95.79%
21:38-26/08/2018	27.53	95.56%
21:58-26/08/2018	30.06	96.61%	>30
13:41-28/08/2018	28.33	98.01%
20:00-30/08/2018	25.88	96.84%
20:13-30/08/2018	30.06	97.20%	>30
20:39-30/08/2018	30.00	95.19%
20:44-30/08/2018	30.90	96.08%	>30
21:22-30/08/2018	28.62	94.84%
21:25-30/08/2018	29.83	94.39%
21:35-30/08/2018	31.44	96.92%	>30
18:45-31/08/2018	28.67	98.18%
19:10-31/08/2018	29.22	97.73%
19:49-04/09/2018	29.77	97.42%
22:08-04/09/2018	28.97	97.44%
22:36-06/09/2018	28.99	94.34%
22:40-11/09/2018	28.30	96.79%
22:44-11/09/2018	29.17	94.32%
22:51-11/09/2018	30.04	94.54%	>30
23:09-11/09/2018	32.56	95.61%	>30
22:52-16/09/2018	32.93	95.38%	>30
21:40-17/09/2018	31.30	95.43%	>30
21:47-17/09/2018	30.66	95.14%	>30
22:12-20/09/2018	32.01	94.32%	>30
11:04-23/09/2018	32.40	96.52%	>30
17:40-23/09/2018	30.85	94.20%	>30
23:02-23/09/2018	32.28	96.31%	>30
23:24-25/09/2018	34.34	97.26%	Objectif atteint
Nouvelle objectif : > 36 mots/min + précision > 95%
23:48-03/10/2018	36.21	94.12%	> presque manque la précision
Nouvelle objectif : > 40 mots/min + précision > 95%
23:41-28/01/2019	35.29	97.82
22:05-08/01/2019	36.51	95.75	>36
22:28-12/02/2019	36.84	95.85	>36
22:39-12/02/2019	37.18	95.27	>36
22:47-12/02/2019	37.54	96.40	>36
21:01-14/02/2019	37.68	97.72	>36
21:01-18/02/2019	38.87	96.34	>36
22:03-18/02/2019	38.42	93.55	>36
22:20-18/02/2019	38.24	96.01   >36
22:33-18/02/2019	37.95	96.15	>36
22:55-18/02/2019	40.09	96.04	Objectif atteint
Nouvelle objectif : > 42 mots/min + précision > 95%
13:31-24/02/2019	39.70	97.41
19:17-24/02/2019	39.23	91.87
21:15-24/02/2019	39.46	95.15
20:32-25/02/2019	37.81	95.44
21:43-25/02/2019	38.77	94.41
21:52-25/02/2019	38.14	95.41
19:58-19/05/2019	40,65	91,97




2/ Sur le test «4-Fluidité» en français :
Condition : Clavier ISO + Disposition Kéa
Objectif : Dépasser ma vitesse en Azerty, ~27 mots/min

Date				Vitesse	Précision	Fluidité
00:06-12/08/2018	15.66	93.96%		71.66%
00:27-12/08/2018	15.50	93.75%		71.33%
13:54-28/08/2018	18.47	93.84%		73.86%
11:50-07/09/2018	18.58	92.68%		71.98%
22:21-12/09/2018	22.89	95.63%		75.96%
22:32-12/09/2018	26.13	97.18%		76.69%
10:56-15/09/2018	22.95	95.83%		75.25%
13:52-15/09/2018	24.21	93.15%		76.28%
14:00-15/09/2018	23.58	91.82%		75.29%
23:44-15/09/2018	25.43	93.41%		77.81%
19:47-16/09/2018	25.82	97.47%		77.44%
23:15-23/09/2018	25.43	95.36%		75.51%
23:24-23/09/2018	22.91	93.57%		74.79%
23:09-25/09/2018	27.78	96.53%		78.26%	Objectif atteint
Nouvelle objectif : > 30 mots/min + précision > 97%
21:32-01/10/2018	22.41	91.71%		75.99%
23:51-02/10/2018	26.92	95.37%		77.18%
23:58-02/10/2018	27.44	94.45%		77.86%	>27
22:38-03/10/2018	28.06	95.22%		77.69%	>27
22:54-03/10/2018	28.71	95.55%		76.64%	>27
16:44-07/10/2018	32.82	97.10%		78.83%	Objectif atteint
Nouvelle objectif : > 36 mots/min + précision > 97%
16:58-07/10/2018	32.11	96.70%		78.63%	>30
21:03-07/10/2018	32.43	96.34%		79.27%	>30




3/ Sur le test «4-Fluidité» en anglais :
Condition : Clavier ISO + Disposition Kéa
Objectif : Même vitesse qu’en français, ~32 mots/min ± 0.5

Date				Vitesse	Précision	Fluidité
21:17-07/10/2018	23.79	92.62%		77.34%
23:23-07/10/2018	26.68	96.02%		77.80%

_________________________________

[vitesse = (nbr caractères - nbr erreurs)/(minutes * 60 + secondes) * 60/5		en mots/min ; 1 mots = 5 caractères]

[Précision = (1 - nbr erreurs / nbr caractères)*100		en %]

[Fluidité = ¿fluctuation de durée entre les frappes?		en %]

